{
    "prepare_queue": {
        "installed": [],
        "uninstalled": []
    },
    "config_munge": {
        "files": {
            "www/config.xml": {
                "parents": {
                    "/widget": [
                        {
                            "xml": "<feature name=\"NetworkStatus\" value=\"NetworkStatus\" />",
                            "count": 1
                        },
                        {
                            "xml": "<feature name=\"Geolocation\" value=\"Geolocation\" />",
                            "count": 1
                        }
                    ],
                    "/widget/rim:permissions": [
                        {
                            "xml": "<rim:permit>read_geolocation</rim:permit>",
                            "count": 1
                        }
                    ]
                }
            }
        }
    },
    "installed_plugins": {
        "cordova-plugin-whitelist": {
            "PACKAGE_NAME": "com.example.yourtracker"
        },
        "cordova-plugin-network-information": {
            "PACKAGE_NAME": "com.example.yourtracker"
        },
        "cordova-plugin-geolocation": {
            "PACKAGE_NAME": "com.example.yourtracker"
        },
        "cordova-plugin-console": {
            "PACKAGE_NAME": "com.example.yourtracker"
        }
    },
    "dependent_plugins": {},
    "modules": [
        {
            "file": "plugins/cordova-plugin-network-information/www/network.js",
            "id": "cordova-plugin-network-information.network",
            "pluginId": "cordova-plugin-network-information",
            "clobbers": [
                "navigator.connection",
                "navigator.network.connection"
            ]
        },
        {
            "file": "plugins/cordova-plugin-network-information/www/Connection.js",
            "id": "cordova-plugin-network-information.Connection",
            "pluginId": "cordova-plugin-network-information",
            "clobbers": [
                "Connection"
            ]
        },
        {
            "file": "plugins/cordova-plugin-geolocation/www/blackberry10/GeolocationProxy.js",
            "id": "cordova-plugin-geolocation.GeolocationProxy",
            "pluginId": "cordova-plugin-geolocation",
            "runs": true
        },
        {
            "file": "plugins/cordova-plugin-geolocation/www/Coordinates.js",
            "id": "cordova-plugin-geolocation.Coordinates",
            "pluginId": "cordova-plugin-geolocation",
            "clobbers": [
                "Coordinates"
            ]
        },
        {
            "file": "plugins/cordova-plugin-geolocation/www/PositionError.js",
            "id": "cordova-plugin-geolocation.PositionError",
            "pluginId": "cordova-plugin-geolocation",
            "clobbers": [
                "PositionError"
            ]
        },
        {
            "file": "plugins/cordova-plugin-geolocation/www/Position.js",
            "id": "cordova-plugin-geolocation.Position",
            "pluginId": "cordova-plugin-geolocation",
            "clobbers": [
                "Position"
            ]
        },
        {
            "file": "plugins/cordova-plugin-geolocation/www/geolocation.js",
            "id": "cordova-plugin-geolocation.geolocation",
            "pluginId": "cordova-plugin-geolocation",
            "clobbers": [
                "navigator.geolocation"
            ]
        }
    ],
    "plugin_metadata": {
        "cordova-plugin-whitelist": "1.2.1",
        "cordova-plugin-network-information": "1.2.0",
        "cordova-plugin-geolocation": "2.1.0",
        "cordova-plugin-console": "1.0.2"
    }
}